Study on Suspicious Web Traffic
…
Naturally, the deaths are scattered a little bit towards the teams respective side, and most of them happen in the lanes, but as you can see there are a lot of kills in between, happening because the time like to skirmish (many vs many battle) in the early game for important objectives, like dragons, monsters and just diving(killing opponents under their turret)

As I’ve mentioned monsters and objectives, it’s good to note that they are one of the most important things in the game, they give a lot of gold, and buffs that help in further fights, so we will check out the win percentage based on the monsters slain.

inner_join(df$LeagueofLegends,df$monsters, by="Address") %>% mutate(winner = ifelse(bResult>rResult,"b","r")) %>% group_by(Address,Team,winner) %>% summarise(count = n())  %>% mutate(Address = str_split(Address,"/",n=7)[[1]][7])  %>% pivot_wider(names_from = "Team", values_from="count") -> partial_result
partial_result %>% head(1000)

# A tibble: 1,000 × 8
# Groups:   Address [1,000]
   Address            winner bBarons bDragons bHeralds rBarons rDragons rHeralds
   <chr>              <chr>    <int>    <int>    <int>   <int>    <int>    <int>
 1 300266?gameHash=a… b            2        3        1      NA       NA       NA
 2 300276?gameHash=b… r            1        3        1       1        2       NA
 3 300279?gameHash=5… b            2        3       NA      NA        2        1
 4 300317?gameHash=5… r           NA        1       NA       1        1        1
 5 300323?gameHash=4… b            1        3        1      NA        1       NA
 6 300325?gameHash=1… b            2        3        1      NA        2       NA
 7 300584?gameHash=9… b            1        1        1      NA        1       NA
 8 300586?gameHash=d… b            2        2        1      NA        1       NA
 9 300587?gameHash=a… b            2        5       NA      NA       NA        1
10 310214?gameHash=9… r            1        2       NA       1        3        1
# ℹ 990 more rows

#here i cut the address string a little so it's clearer
#also i made it wider so we can see better and compare

keep in mind here that not all monsters were in the game at the time, some, like elemental dragons and heralds were introduced after 2015 Now that we have the above table let’s compare total monsters slain to wins, whether it affects something at all. But also, note that not all dragons are equal and all objectives are equal as i said above.

partial_result %>% rowwise() %>%
  mutate(
    r_sum = sum(c_across(starts_with("r")& where(is.numeric)), na.rm = TRUE),
    b_sum = sum(c_across(starts_with("b")& where(is.numeric)), na.rm = TRUE)
  ) %>% select(Address,winner,r_sum,b_sum) -> partial_result2
partial_result2 %>% head(200)

# A tibble: 200 × 4
# Rowwise:  Address
   Address                          winner r_sum b_sum
   <chr>                            <chr>  <int> <int>
 1 300266?gameHash=aa0e58f00d1d18e0 b          0     6
 2 300276?gameHash=bc00457a5072a5a5 r          3     5
 3 300279?gameHash=51eab859e6cb3f6d b          3     5
 4 300317?gameHash=55170dc883a36be7 r          3     1
 5 300323?gameHash=410b4ede6a0de62b b          1     5
 6 300325?gameHash=190bbbfe9aa11560 b          2     6
 7 300584?gameHash=994a9f79d13f42d6 b          1     3
 8 300586?gameHash=d5741db163533909 b          1     5
 9 300587?gameHash=adf333629d99ed10 b          1     7
10 310214?gameHash=986eb7ceaade8aaa r          5     3
# ℹ 190 more rows
…
As we can see they won 71% of all the games they played, which is really good. And let’s see the monsters now

inner_join(skt,df$monsters, by="Address") %>% mutate(winner = ifelse(bResult>rResult,"b","r")) %>% group_by(Address,Team,winner) %>% summarise(count = n())  %>% mutate(Address = str_split(Address,"/",n=7)[[1]][7])  %>% pivot_wider(names_from = "Team", values_from="count") -> pr
pr %>%  rowwise() %>%
  mutate(
    r_sum = sum(c_across(starts_with("r")& where(is.numeric)), na.rm = TRUE),
    b_sum = sum(c_across(starts_with("b")& where(is.numeric)), na.rm = TRUE)
  ) %>% select(Address,winner,r_sum,b_sum) -> pr2
pr2

# A tibble: 403 × 4
# Rowwise:  Address
   Address                          winner r_sum b_sum
   <chr>                            <chr>  <int> <int>
 1 341202?gameHash=7e08241b059766d7 b          2     2
 2 341204?gameHash=7149ba1eac026c71 r          4     0
 3 341210?gameHash=a4d2422c8da97a91 r          4     0
 4 351146?gameHash=fcd2dc86969dd034 b          0     4
 5 540853?gameHash=3125fd4c4f7124ed b          1     4
 6 540885?gameHash=24216cb12c2f22e7 b          2     4
 7 540892?gameHash=ae1050af224bc9c6 b          4     3
 8 551027?gameHash=2596634c7e953d03 b          3     6
 9 551040?gameHash=aba82d5135e094ec r          4     1
10 80865?gameHash=9c827bc6768fa93d  b          1     4
# ℹ 393 more rows
…
